<?xml version="1.0" encoding="UTF-8" standalone="no"?>
<!-- Generator: Adobe Illustrator 15.0.0, SVG Export Plug-In . SVG Version: 6.00 Build 0)  -->

<svg
   xmlns:dc="http://purl.org/dc/elements/1.1/"
   xmlns:cc="http://creativecommons.org/ns#"
   xmlns:rdf="http://www.w3.org/1999/02/22-rdf-syntax-ns#"
   xmlns:svg="http://www.w3.org/2000/svg"
   xmlns="http://www.w3.org/2000/svg"
   xmlns:sodipodi="http://sodipodi.sourceforge.net/DTD/sodipodi-0.dtd"
   xmlns:inkscape="http://www.inkscape.org/namespaces/inkscape"
   version="1.1"
   x="0px"
   y="0px"
   width="792px"
   height="1224px"
   viewBox="0 0 792 1224"
   enable-background="new 0 0 792 1224"
   xml:space="preserve"
   id="svg2"
   inkscape:version="0.48.4 r9939"
   sodipodi:docname="finger.svg"><metadata
   id="metadata28"><rdf:RDF><cc:Work
       rdf:about=""><dc:format>image/svg+xml</dc:format><dc:type
         rdf:resource="http://purl.org/dc/dcmitype/StillImage" /><dc:title /></cc:Work></rdf:RDF></metadata><defs
   id="defs26">
	
	
	
	
	
	
	
	
	
</defs><sodipodi:namedview
   pagecolor="#ffffff"
   bordercolor="#666666"
   borderopacity="1"
   objecttolerance="10"
   gridtolerance="10"
   guidetolerance="10"
   inkscape:pageopacity="0"
   inkscape:pageshadow="2"
   inkscape:window-width="1440"
   inkscape:window-height="838"
   id="namedview24"
   showgrid="false"
   showborder="false"
   inkscape:zoom="0.19281046"
   inkscape:cx="707.49006"
   inkscape:cy="882.45257"
   inkscape:window-x="-8"
   inkscape:window-y="-8"
   inkscape:window-maximized="1"
   inkscape:current-layer="svg2" />
<g
   id="g3798"
   transform="translate(-1107.3051,570.50848)"><path
     stroke-miterlimit="10"
     d="m 760.40043,1068.1823 c -39.73619,-24.6749 -105.20801,-64.5524 -127.23624,-73.3964 -19.53473,-7.84084 -43.86066,-10.4331 -72.02702,-13.43553 -21.00135,-2.2386 -44.80386,-4.77345 -70.50599,-9.83805 -39.2982,-7.74353 -52.94549,-46.29973 -54.01836,-49.51146 l -3.55577,-12.55723 -11.30469,-5.9217 C 400.26545,891.38435 -104.76268,606.12474 -129.1806,593.68981 c -9.19762,-4.68324 -34.75477,-22.53096 -42.45689,-48.52449 -4.99799,-16.86324 -3.12808,-32.50602 8.41892,-52.50601 6.296,-10.90499 26.22998,-33.00366 64.361398,-22.78721 33.441755,8.95918 70.972634,31.86779 101.1274189,50.27417 13.5088881,8.24392 25.1743931,15.36467 35.5159641,20.72455 55.878981,28.96276 178.250679,82.13077 183.431439,84.37942 L 313.37328,665.25 262.30457,580.95761 c -1.44606,-3.33135 -10.46799,-26.91491 7.73699,-60.25286 0.41831,-0.76654 0.83679,-1.51336 1.26429,-2.25381 25.229,-43.69791 65.58165,-39.10875 71.21727,-38.22793 l 24.8652,5.4682 10.04099,-23.3775 c 1.67305,-3.57781 3.45033,-6.99614 5.27733,-10.1606 14.4135,-24.96491 32.41565,-36.15156 56.65262,-35.19722 19.87701,0.78001 36.59923,9.59627 38.02693,10.36744 l 19.24812,11.48126 16.99976,-14.54244 c 23.37312,-19.22743 32.10339,-19.50671 41.88521,-17.80132 18.64414,3.24941 47.57497,18.94573 91.3696,42.70521 9.12461,4.95171 18.9215,10.265 29.47716,15.93207 109.48172,58.7741 149.88473,143.14403 150.2806,143.99036 l 4.24959,9.30549 8.80258,4.98749 133.39909,77.018 -212.69747,367.78285 z"
     id="path9"
     inkscape:connector-curvature="0"
     style="fill:#ffcca9;fill-opacity:1;stroke:#000000;stroke-width:16;stroke-miterlimit:10" /><path
     stroke-miterlimit="10"
     d="m -147.10716,507.97953 c -11.99,20.76729 -0.74647,39.75492 3.04986,45.1695 25.18513,11.36406 55.313104,23.61888 70.508604,-2.7005 13.5715,-23.50652 -10.482338,-46.28405 -32.915604,-62.41249 -6.58683,-0.58129 -28.65236,-0.82466 -40.64286,19.94349 z"
     id="path11"
     inkscape:connector-curvature="0"
     style="fill:#ffe5d3;fill-opacity:1;stroke:#000000;stroke-width:8;stroke-miterlimit:10" /><path
     d="m -20.785218,621.41151 c 0,0 0.659047,-22.1835 31.968227,-61.3826 0,0 -8.119725,23.08378 -31.968227,61.3826 z"
     id="path13"
     inkscape:connector-curvature="0" /><path
     d="m -5.162986,630.43101 c 0,0 0.6573147,-22.1845 31.966496,-61.3836 0,0 -8.119726,23.08378 -31.966496,61.3836 z"
     id="path15"
     inkscape:connector-curvature="0" /><path
     d="m 152.64823,619.84195 c 0,0 -3.33181,26.81688 -41.43199,77.77833 8.7e-4,5e-4 11.41272,-28.78742 41.43199,-77.77833 z"
     id="path17"
     inkscape:connector-curvature="0" /><path
     d="m 105.33574,685.54759 c 0,0 -10.252087,-42.36485 33.12109,-69.3934 8.7e-4,5e-4 -31.65695,33.78945 -33.12109,69.3934 z"
     id="path19"
     inkscape:connector-curvature="0" /><path
     d="m 131.57193,697.22519 c 0,0 24.74891,-30.84037 29.71423,-57.47855 -5e-4,8.6e-4 12.76127,22.99082 -29.71423,57.47855 z"
     id="path21"
     inkscape:connector-curvature="0" /></g>
<g
   id="Layer_3">
</g>
<g
   id="g4065"
   transform="translate(-24.305177,-586.0678)"><path
     id="path3820"
     sodipodi:nodetypes="scccssccsscccccscccscccscccs"
     inkscape:connector-curvature="0"
     d="m -1494.9479,576.44876 c -14.0794,24.38623 -6.0188,55.37928 17.7774,70.07742 82.6075,50.71283 167.5947,97.57217 251.6671,145.82546 -41.468,4.12574 -65.8241,28.8274 -70.1704,33.59709 -6.2123,4.34969 -11.5829,10.0481 -15.6248,17.04886 -14.7984,25.63153 -6.005,58.4487 19.6266,73.24712 22.8909,13.21608 51.4231,7.56409 67.8159,-12.03989 21.6192,-13.84767 36.0917,-10.80381 36.0917,-10.80381 0,0 6.5287,-1.77532 46.4744,23.46814 39.9455,25.24369 124.2234,36.83494 186.9299,14.15672 62.7064,-22.67798 89.8214,1.19037 89.8214,1.19037 l 35.1627,20.30122 13.9286,-24.12511 0.3942,0.22759 123.8751,-208.73147 c 0,0 -92.2042,-36.84778 -117.2849,-112.3904 -14.8916,-44.85357 -62.1233,-75.30939 -98.1536,-92.72542 l -132.5197,-76.5103 -0.09,0.15642 c -24.6925,-13.57303 -55.7366,-5.05851 -69.8929,19.46093 -9.3286,16.15758 -9.0027,35.21126 -0.7895,50.52736 -27.9605,-19.19901 -72.1812,-11.70225 -86.6315,10.21743 -10.9579,18.97968 -8.5564,41.96783 4.2577,58.17196 -24.5375,-12.84981 -55.0935,-4.16953 -69.0711,20.04035 -10.6481,18.44306 -8.5949,40.6552 3.2816,56.76742 l -161.0024,-92.95481 c -26.1905,-16.42054 -63.6523,-3.9541 -75.8725,15.79809 z"
     style="fill:#fecca9;fill-opacity:1;stroke:none" /><path
     id="path3944"
     d="m -1067.0312,423.375 c -20.0183,0.40177 -39.3419,10.9315 -50.0626,29.5 -7.2595,12.57398 -9.2882,26.73921 -6.9062,40.03125 -11.9815,-4.07032 -24.8633,-5.00955 -36.9375,-3.375 -17.9073,2.42421 -34.4497,10.22721 -43.3437,23.71875 l -0.125,0.1875 -0.125,0.1875 c -9.0065,15.59936 -9.9819,33.62173 -4.375,49.40625 -23.4663,-3.62497 -47.8859,7.07272 -60.4376,28.8125 -7.7772,13.471 -9.5442,28.73899 -6.2812,42.8125 l -141.25,-81.53125 c -0.072,-0.0451 -0.1464,-0.0802 -0.2188,-0.125 -15.0768,-9.35562 -32.9498,-10.33894 -48.5937,-6.4375 -15.407,3.84236 -29.0252,12.25108 -36.625,24 -0.041,0.063 -0.085,0.12432 -0.125,0.1875 l -0.2187,0.25 -0.125,0.1875 c -0.012,0.0195 -0.019,0.043 -0.031,0.0625 l -0.125,0.21875 c -16.0172,27.74264 -6.7839,63.18908 20.2813,79.90625 77.2107,47.39985 156.3337,91.40559 234.7812,136.21875 -30.8524,8.39952 -49.2262,26.10468 -54.125,31.375 -6.8464,4.89082 -12.8012,11.27126 -17.2812,19.03125 -16.7692,29.04461 -6.7635,66.41855 22.2812,83.1875 25.4453,14.69087 57.1316,8.74709 75.9062,-12.5 9.7404,-6.1429 17.5621,-8.41299 22.8126,-9.21875 5.344,-0.82015 7.3437,-0.28125 7.3437,-0.28125 l 1.7187,0.34375 0.4063,-0.125 c 0.633,0.12974 2.0633,0.5055 4.875,1.65625 5.9795,2.44726 17.3377,8.14018 37.0937,20.625 43.0053,27.17719 127.8658,38.5017 193.2813,14.84375 30.26899,-10.94689 51.22235,-10.48817 64.4375,-7.65625 13.21515,2.83192 18.09375,7.46875 18.09375,7.46875 l 0.5625,0.46875 0.625,0.34375 35.15625,20.3125 6.3125,3.65625 3.625,-6.3125 10.3125,-17.84375 0.3125,0.1875 3.65625,-6.1875 123.875,-208.71875 4.34375,-7.3125 -7.90625,-3.15625 c 0,0 -89.44057,-36.78863 -113.0625,-107.9375 -15.96558,-48.08845 -64.70893,-78.90537 -101.4375,-96.71875 l -0.15625,-0.0937 c -0.10038,-0.0486 -0.2123,-0.10782 -0.3125,-0.15625 l -132.0312,-76.28125 -6.3438,-3.625 -0.4062,0.6875 c -6.8787,-2.76017 -14.0584,-4.19119 -21.1876,-4.28125 -0.6468,-0.008 -1.2918,-0.013 -1.9374,0 z m 0.6562,14.46875 c 7.4303,-0.0646 14.977,1.75061 21.9688,5.59375 l 6.25,3.4375 0,-0.0312 126.2187,72.875 0.25,0.15625 0.21875,0.0937 c 35.28033,17.05354 80.65507,47.05007 94.40625,88.46875 22.14129,66.68922 91.23674,103.05713 113.75,113.40625 l -116,195.5 -0.46875,-0.25 -3.65625,6.3125 -10.25,17.8125 -28.65625,-16.53125 c -2.15078,-1.63095 -10.08903,-7.10379 -23.75,-10.03125 -16.01892,-3.43276 -39.96889,-3.57484 -72.40625,8.15625 -59.9975,21.69849 -143.6766,9.84144 -180.5625,-13.46875 -20.1895,-12.75864 -32.1037,-18.8053 -39.375,-21.78125 -3.6356,-1.48797 -6.0993,-2.20623 -8.0313,-2.5625 -0.9656,-0.17814 -1.8064,-0.24767 -2.5937,-0.25 -0.076,-2.2e-4 -0.132,0.0267 -0.2187,0.0312 -1.5225,-0.21227 -5.2782,-0.62561 -11.1876,0.28125 -7.2968,1.11984 -17.3646,4.20358 -29,11.65625 l -0.9374,0.59375 -0.7188,0.875 c -14.167,16.94214 -38.7508,21.86251 -58.5938,10.40625 -22.2183,-12.82789 -29.7653,-41.09405 -16.9374,-63.3125 3.5006,-6.06351 8.1202,-10.95204 13.5,-14.71875 l 0.6562,-0.46875 0.5312,-0.59375 c 3.6018,-3.95261 25.9599,-26.70257 63.8438,-31.0625 l 54.3438,31.375 0.1562,0.0625 0.1562,0.0937 c 0,0 9.0479,4.67668 19.6876,11.84375 10.6395,7.16707 22.673,17.05041 27.9374,25.46875 13.274,21.22613 24.4063,30.40625 24.4063,30.40625 l 9.1563,-11.34375 c 0,0 -8.835,-6.9786 -21.2188,-26.78125 -7.5645,-12.09603 -20.7702,-22.17379 -32.1562,-29.84375 -11.1311,-7.498 -20.4197,-12.31173 -20.8438,-12.53125 l -0.031,-0.0312 c -0.01,-0.004 -0.25,-0.125 -0.25,-0.125 l -77,-44.46875 -0.25,0.4375 c -77.4267,-44.19839 -155.2581,-87.53317 -231,-134.03125 -20.4991,-12.6616 -27.3847,-39.10909 -15.3126,-60.125 4.7536,-7.59133 15.6296,-15.02443 28.1876,-18.15625 12.6147,-3.14604 26.4628,-2.15826 37.5312,4.78125 l 0.125,0.0625 0.125,0.0625 161,92.96875 0.094,-0.0937 83.4062,48.15625 7.2812,-12.59375 -82.3124,-47.5625 c -9.294,-13.71813 -10.6723,-31.99787 -1.8126,-47.34375 12.0566,-20.88243 38.233,-28.29048 59.375,-17.21875 l 1.875,-2.25 -1,1.71875 73.0313,42.15625 L -1116.7812,612 -1188.5,570.59375 c -10.7253,-13.83258 -12.7481,-33.24257 -3.5312,-49.4375 5.5998,-8.37078 18.2992,-15.19315 33.0312,-17.1875 14.8058,-2.00434 31.1428,0.75878 43.2812,9.09375 l 0.2813,-0.25 59.5625,34.375 6.1875,-10.71875 -56.0313,-32.34375 0.5626,-0.5 c -7.0625,-13.16984 -7.3961,-29.52187 0.6562,-43.46875 7.6351,-13.22432 20.8824,-21.02511 34.9375,-22.15625 1.0541,-0.0848 2.126,-0.14702 3.1875,-0.15625 z"
     style="font-size:medium;font-style:normal;font-variant:normal;font-weight:normal;font-stretch:normal;text-indent:0;text-align:start;text-decoration:none;line-height:normal;letter-spacing:normal;word-spacing:normal;text-transform:none;direction:ltr;block-progression:tb;writing-mode:lr-tb;text-anchor:start;baseline-shift:baseline;color:#000000;fill:#000000;fill-opacity:1;stroke:none;stroke-width:14.56589699;marker:none;visibility:visible;display:inline;overflow:visible;enable-background:accumulate;font-family:Sans;-inkscape-font-specification:Sans"
     inkscape:connector-curvature="0" /></g><g
   transform="matrix(1.4565897,-2.5228874,2.5228874,1.4565897,602.73565,-3481.2502)"
   id="g4008"><path
     style="fill:#fecca9;fill-opacity:1;stroke:#000000;stroke-width:5;stroke-linejoin:miter;stroke-miterlimit:4;stroke-opacity:1;stroke-dasharray:none"
     d="m -1228.8691,308.57945 c -9.666,0 -17.4961,7.71569 -17.7813,17.3125 -0.8976,33.26145 -0.2412,66.56895 -0.1562,99.84375 -8.3438,-11.61942 -19.8674,-14.62032 -22.0313,-15.09375 -2.3593,-1.10021 -4.9751,-1.71875 -7.75,-1.71875 -10.1596,0 -18.4062,8.24661 -18.4062,18.40625 0,9.0733 6.5773,16.58523 15.2187,18.09375 7.8272,4.0502 9.4063,8.875 9.4063,8.875 0,0 1.6483,1.63612 1,17.84375 4.6761,49.59897 46.7693,81.94487 70.4534,88.99227 25.3732,7.53567 48.6321,-4.61475 78.6403,-43.14852 10.7781,-12.12533 11.7254,-31.39355 10.7188,-45.09375 l 0,-52.52701 -0.062,0 c -0.2031,-9.67014 -8.0625,-17.4375 -17.7813,-17.4375 -6.4044,0 -12.0127,3.36716 -15.1562,8.4375 0.9085,-11.60723 -8.9099,-23.46641 -17.9063,-24 -7.523,0 -13.9447,4.65946 -16.5625,11.25 -0.3915,-9.49994 -8.2164,-17.09375 -17.8125,-17.09375 -7.3103,0 -13.5611,4.42271 -16.3125,10.71875 l 0,-63.81674 c 0.3863,-10.60419 -9.7494,-19.60109 -17.7187,-19.84375 z"
     id="path4010"
     inkscape:connector-curvature="0"
     sodipodi:nodetypes="scccssccccccccscccscccs" /><path
     style="fill:none;stroke:#000000;stroke-width:5;stroke-linecap:butt;stroke-linejoin:miter;stroke-miterlimit:4;stroke-opacity:1;stroke-dasharray:none"
     d="m -1246.6757,417.6376 0,30.63314 c 0,0 0.6876,14.52132 -3.209,21.85605 -3.8966,7.33474 -4.5842,11.68974 -4.5842,11.68974"
     id="path4012"
     inkscape:connector-curvature="0"
     sodipodi:nodetypes="ccsc" /><path
     style="fill:none;stroke:#000000;stroke-width:5;stroke-linecap:butt;stroke-linejoin:miter;stroke-miterlimit:4;stroke-opacity:1;stroke-dasharray:none"
     d="m -1211.1088,390.70452 0,34.61078"
     id="path4014"
     inkscape:connector-curvature="0" /><path
     inkscape:connector-curvature="0"
     id="path4016"
     d="m -1176.9286,398.88738 0,28.94607"
     style="fill:none;stroke:#000000;stroke-width:4.57255697;stroke-linecap:butt;stroke-linejoin:miter;stroke-miterlimit:4;stroke-opacity:1;stroke-dasharray:none" /><path
     style="fill:none;stroke:#000000;stroke-width:4.24783182;stroke-linecap:butt;stroke-linejoin:miter;stroke-miterlimit:4;stroke-opacity:1;stroke-dasharray:none"
     d="m -1142.8041,409.83227 0,24.98078"
     id="path4018"
     inkscape:connector-curvature="0" /></g></svg>